%YAML 1.1
%TAG !u! tag:unity3d.com,2011:
--- !u!1045 &1
EditorBuildSettings:
  m_ObjectHideFlags: 0
  serializedVersion: 2
  m_Scenes:
  - enabled: 0
    path: Assets/GoogleARCore/Examples/HelloAR/Scenes/HelloAR.unity
    guid: e6a6fa04348cb45c9b0221eb19c946da
  - enabled: 0
    path: Assets/GoogleARCore/Examples/CloudAnchors/Scenes/CloudAnchors.unity
    guid: 83fb41cc294e74bdea57537befa00ffc
  - enabled: 0
    path: Assets/GoogleARCore/Examples/ComputerVision/Scenes/ComputerVision.unity
    guid: 5ef0f7f7f2c7b4285b707265348bbffd
  - enabled: 1
    path: Assets/GoogleARCore/Examples/AugmentedImage/Scenes/AugmentedImage.unity
    guid: be567d47d3ab94b3badc5b211f535a24
  m_configObjects: {}
